com\antoonvereecken\HelloWorld.class
com\antoonvereecken\HelloWorld$ChangeMessage.class
com\antoonvereecken\HelloWorld$SayHello.class
com\antoonvereecken\HelloWorldApp.class
com\antoonvereecken\HelloWorld$Command.class
