D:\Work\Java Concurrency with the Akka Actor Model\PracticalsAndCode\Practicals And Code\mein\AkkaBigPrimes\src\main\java\com\antoonvereecken\behavior\ManagerBehavior.java
D:\Work\Java Concurrency with the Akka Actor Model\PracticalsAndCode\Practicals And Code\mein\AkkaBigPrimes\src\main\java\com\antoonvereecken\behavior\FirstSimpleBehavior.java
D:\Work\Java Concurrency with the Akka Actor Model\PracticalsAndCode\Practicals And Code\mein\AkkaBigPrimes\src\main\java\com\antoonvereecken\behavior\WorkerBehavior.java
D:\Work\Java Concurrency with the Akka Actor Model\PracticalsAndCode\Practicals And Code\mein\AkkaBigPrimes\src\main\java\com\antoonvereecken\main\Main.java
D:\Work\Java Concurrency with the Akka Actor Model\PracticalsAndCode\Practicals And Code\mein\AkkaBigPrimes\src\main\java\com\antoonvereecken\behavior\MyWorkerBehavior.java
